{"results": [{"year": 2016, "offense_name": "Robbery", "offense_code": "SUM_ROB", "state_postal_abbr": "TX", "pub_agency_name": "Abilene Police Department", "id": 7026609, "actual": 133, "cleared": 54, "unfounded": 5, "juvenile_cleared": 4, "agency_id": 19740, "ori": "TX2210100", "reported": 138}, {"year": 2016, "offense_name": "Assault", "offense_code": "SUM_AST", "state_postal_abbr": "TX", "pub_agency_name": "Abilene Police Department", "id": 7126306, "actual": 3018, "cleared": 1426, "unfounded": 123, "juvenile_cleared": 203, "agency_id": 19740, "ori": "TX2210100", "reported": 3141}, {"year": 2016, "offense_name": "Larceny", "offense_code": "SUM_LRC", "state_postal_abbr": "TX", "pub_agency_name": "Abilene Police Department", "id": 7143166, "actual": 3113, "cleared": 643, "unfounded": 44, "juvenile_cleared": 45, "agency_id": 19740, "ori": "TX2210100", "reported": 3157}, {"year": 2016, "offense_name": "Aggravated Assault", "offense_code": "X_AGG", "state_postal_abbr": "TX", "pub_agency_name": "Abilene Police Department", "id": 7159655, "actual": 335, "cleared": 226, "unfounded": 22, "juvenile_cleared": 18, "agency_id": 19740, "ori": "TX2210100", "reported": 357}, {"year": 2016, "offense_name": "Arson", "offense_code": "X_ARS", "state_postal_abbr": "TX", "pub_agency_name": "Abilene Police Department", "id": 7174685, "actual": 21, "cleared": 4, "unfounded": 0, "juvenile_cleared": 1, "agency_id": 19740, "ori": "TX2210100", "reported": 21}, {"year": 2016, "offense_name": "Manslaughter by Negligence", "offense_code": "SUM_MAN", "state_postal_abbr": "TX", "pub_agency_name": "Abilene Police Department", "id": 7132113, "actual": 1, "cleared": 0, "unfounded": 0, "juvenile_cleared": 0, "agency_id": 19740, "ori": "TX2210100", "reported": 1}, {"year": 2016, "offense_name": "Burglary", "offense_code": "SUM_BRG", "state_postal_abbr": "TX", "pub_agency_name": "Abilene Police Department", "id": 7114276, "actual": 905, "cleared": 129, "unfounded": 5, "juvenile_cleared": 12, "agency_id": 19740, "ori": "TX2210100", "reported": 910}, {"year": 2016, "offense_name": "Rape", "offense_code": "SUM_RPE", "state_postal_abbr": "TX", "pub_agency_name": "Abilene Police Department", "id": 7109142, "actual": 70, "cleared": 47, "unfounded": 4, "juvenile_cleared": 10, "agency_id": 19740, "ori": "TX2210100", "reported": 74}, {"year": 2016, "offense_name": "Motor Vehicle Theft", "offense_code": "SUM_MVT", "state_postal_abbr": "TX", "pub_agency_name": "Abilene Police Department", "id": 7102580, "actual": 251, "cleared": 56, "unfounded": 13, "juvenile_cleared": 6, "agency_id": 19740, "ori": "TX2210100", "reported": 264}, {"year": 2016, "offense_name": "Murder and Nonnegligent Homicide", "offense_code": "SUM_HOM", "state_postal_abbr": "TX", "pub_agency_name": "Abilene Police Department", "id": 7043346, "actual": 8, "cleared": 9, "unfounded": 0, "juvenile_cleared": 0, "agency_id": 19740, "ori": "TX2210100", "reported": 8}, {"year": 2015, "offense_name": "Burglary", "offense_code": "SUM_BRG", "state_postal_abbr": "TX", "pub_agency_name": "Abilene Police Department", "id": 6877528, "actual": 1168, "cleared": 122, "unfounded": 3, "juvenile_cleared": 14, "agency_id": 19740, "ori": "TX2210100", "reported": 1171}, {"year": 2015, "offense_name": "Aggravated Assault", "offense_code": "X_AGG", "state_postal_abbr": "TX", "pub_agency_name": "Abilene Police Department", "id": 6939032, "actual": 394, "cleared": 248, "unfounded": 11, "juvenile_cleared": 15, "agency_id": 19740, "ori": "TX2210100", "reported": 405}, {"year": 2015, "offense_name": "Motor Vehicle Theft", "offense_code": "SUM_MVT", "state_postal_abbr": "TX", "pub_agency_name": "Abilene Police Department", "id": 6920527, "actual": 388, "cleared": 89, "unfounded": 10, "juvenile_cleared": 7, "agency_id": 19740, "ori": "TX2210100", "reported": 398}, {"year": 2015, "offense_name": "Larceny", "offense_code": "SUM_LRC", "state_postal_abbr": "TX", "pub_agency_name": "Abilene Police Department", "id": 6898955, "actual": 3798, "cleared": 784, "unfounded": 34, "juvenile_cleared": 50, "agency_id": 19740, "ori": "TX2210100", "reported": 3832}, {"year": 2015, "offense_name": "Manslaughter by Negligence", "offense_code": "SUM_MAN", "state_postal_abbr": "TX", "pub_agency_name": "Abilene Police Department", "id": 6895455, "actual": 0, "cleared": 0, "unfounded": 0, "juvenile_cleared": 0, "agency_id": 19740, "ori": "TX2210100", "reported": 0}, {"year": 2015, "offense_name": "Assault", "offense_code": "SUM_AST", "state_postal_abbr": "TX", "pub_agency_name": "Abilene Police Department", "id": 6881996, "actual": 3219, "cleared": 1487, "unfounded": 121, "juvenile_cleared": 200, "agency_id": 19740, "ori": "TX2210100", "reported": 3340}, {"year": 2015, "offense_name": "Rape", "offense_code": "SUM_RPE", "state_postal_abbr": "TX", "pub_agency_name": "Abilene Police Department", "id": 6870590, "actual": 84, "cleared": 50, "unfounded": 2, "juvenile_cleared": 5, "agency_id": 19740, "ori": "TX2210100", "reported": 86}, {"year": 2015, "offense_name": "Murder and Nonnegligent Homicide", "offense_code": "SUM_HOM", "state_postal_abbr": "TX", "pub_agency_name": "Abilene Police Department", "id": 6854331, "actual": 7, "cleared": 7, "unfounded": 0, "juvenile_cleared": 0, "agency_id": 19740, "ori": "TX2210100", "reported": 7}, {"year": 2015, "offense_name": "Robbery", "offense_code": "SUM_ROB", "state_postal_abbr": "TX", "pub_agency_name": "Abilene Police Department", "id": 6837206, "actual": 128, "cleared": 60, "unfounded": 4, "juvenile_cleared": 5, "agency_id": 19740, "ori": "TX2210100", "reported": 132}, {"year": 2015, "offense_name": "Arson", "offense_code": "X_ARS", "state_postal_abbr": "TX", "pub_agency_name": "Abilene Police Department", "id": 6797777, "actual": 28, "cleared": 12, "unfounded": 0, "juvenile_cleared": 6, "agency_id": 19740, "ori": "TX2210100", "reported": 28}, {"year": 2014, "offense_name": "Arson", "offense_code": "X_ARS", "state_postal_abbr": "TX", "pub_agency_name": "Abilene", "id": 6209681, "actual": 28, "cleared": 13, "unfounded": 0, "juvenile_cleared": 2, "agency_id": 19740, "ori": "TX2210100", "reported": 28}, {"year": 2014, "offense_name": "Aggravated Assault", "offense_code": "X_AGG", "state_postal_abbr": "TX", "pub_agency_name": "Abilene", "id": 6788048, "actual": 343, "cleared": 220, "unfounded": 9, "juvenile_cleared": 12, "agency_id": 19740, "ori": "TX2210100", "reported": 352}, {"year": 2014, "offense_name": "Arson", "offense_code": "X_ARS", "state_postal_abbr": "TX", "pub_agency_name": "Abilene", "id": 5021450, "actual": 28, "cleared": 13, "unfounded": 0, "juvenile_cleared": 2, "agency_id": 19740, "ori": "TX2210100", "reported": 28}, {"year": 2014, "offense_name": "Burglary", "offense_code": "SUM_BRG", "state_postal_abbr": "TX", "pub_agency_name": "Abilene", "id": 4612118, "actual": 1095, "cleared": 105, "unfounded": 7, "juvenile_cleared": 9, "agency_id": 19740, "ori": "TX2210100", "reported": 1102}, {"year": 2014, "offense_name": "Assault", "offense_code": "SUM_AST", "state_postal_abbr": "TX", "pub_agency_name": "Abilene", "id": 4612117, "actual": 2972, "cleared": 1283, "unfounded": 72, "juvenile_cleared": 157, "agency_id": 19740, "ori": "TX2210100", "reported": 3044}, {"year": 2014, "offense_name": "Robbery", "offense_code": "SUM_ROB", "state_postal_abbr": "TX", "pub_agency_name": "Abilene", "id": 4612116, "actual": 128, "cleared": 55, "unfounded": 2, "juvenile_cleared": 3, "agency_id": 19740, "ori": "TX2210100", "reported": 130}, {"year": 2014, "offense_name": "Manslaughter by Negligence", "offense_code": "SUM_MAN", "state_postal_abbr": "TX", "pub_agency_name": "Abilene", "id": 4612114, "actual": 0, "cleared": 0, "unfounded": 0, "juvenile_cleared": 0, "agency_id": 19740, "ori": "TX2210100", "reported": 0}, {"year": 2014, "offense_name": "Arson", "offense_code": "X_ARS", "state_postal_abbr": "TX", "pub_agency_name": "Abilene", "id": 5417527, "actual": 28, "cleared": 13, "unfounded": 0, "juvenile_cleared": 2, "agency_id": 19740, "ori": "TX2210100", "reported": 28}, {"year": 2014, "offense_name": "Murder and Nonnegligent Homicide", "offense_code": "SUM_HOM", "state_postal_abbr": "TX", "pub_agency_name": "Abilene", "id": 4612113, "actual": 7, "cleared": 7, "unfounded": 0, "juvenile_cleared": 1, "agency_id": 19740, "ori": "TX2210100", "reported": 7}, {"year": 2014, "offense_name": "Arson", "offense_code": "X_ARS", "state_postal_abbr": "TX", "pub_agency_name": "Abilene", "id": 5813604, "actual": 28, "cleared": 13, "unfounded": 0, "juvenile_cleared": 2, "agency_id": 19740, "ori": "TX2210100", "reported": 28}, {"year": 2014, "offense_name": "Rape", "offense_code": "SUM_RPE", "state_postal_abbr": "TX", "pub_agency_name": "Abilene", "id": 4612115, "actual": 93, "cleared": 44, "unfounded": 7, "juvenile_cleared": 5, "agency_id": 19740, "ori": "TX2210100", "reported": 100}, {"year": 2014, "offense_name": "Larceny", "offense_code": "SUM_LRC", "state_postal_abbr": "TX", "pub_agency_name": "Abilene", "id": 4612119, "actual": 3887, "cleared": 887, "unfounded": 23, "juvenile_cleared": 72, "agency_id": 19740, "ori": "TX2210100", "reported": 3910}, {"year": 2014, "offense_name": "Motor Vehicle Theft", "offense_code": "SUM_MVT", "state_postal_abbr": "TX", "pub_agency_name": "Abilene", "id": 4612120, "actual": 362, "cleared": 52, "unfounded": 2, "juvenile_cleared": 3, "agency_id": 19740, "ori": "TX2210100", "reported": 364}, {"year": 2013, "offense_name": "Assault", "offense_code": "SUM_AST", "state_postal_abbr": "TX", "pub_agency_name": "Abilene", "id": 4490229, "actual": 2589, "cleared": 1158, "unfounded": 82, "juvenile_cleared": 176, "agency_id": 19740, "ori": "TX2210100", "reported": 2671}, {"year": 2013, "offense_name": "Arson", "offense_code": "X_ARS", "state_postal_abbr": "TX", "pub_agency_name": "Abilene", "id": 5006768, "actual": 16, "cleared": 2, "unfounded": 0, "juvenile_cleared": 0, "agency_id": 19740, "ori": "TX2210100", "reported": 16}, {"year": 2013, "offense_name": "Aggravated Assault", "offense_code": "X_AGG", "state_postal_abbr": "TX", "pub_agency_name": "Abilene", "id": 6772812, "actual": 314, "cleared": 211, "unfounded": 9, "juvenile_cleared": 15, "agency_id": 19740, "ori": "TX2210100", "reported": 323}, {"year": 2013, "offense_name": "Arson", "offense_code": "X_ARS", "state_postal_abbr": "TX", "pub_agency_name": "Abilene", "id": 6194999, "actual": 16, "cleared": 2, "unfounded": 0, "juvenile_cleared": 0, "agency_id": 19740, "ori": "TX2210100", "reported": 16}, {"year": 2013, "offense_name": "Murder and Nonnegligent Homicide", "offense_code": "SUM_HOM", "state_postal_abbr": "TX", "pub_agency_name": "Abilene", "id": 4490225, "actual": 1, "cleared": 2, "unfounded": 0, "juvenile_cleared": 0, "agency_id": 19740, "ori": "TX2210100", "reported": 1}, {"year": 2013, "offense_name": "Manslaughter by Negligence", "offense_code": "SUM_MAN", "state_postal_abbr": "TX", "pub_agency_name": "Abilene", "id": 4490226, "actual": 0, "cleared": 0, "unfounded": 0, "juvenile_cleared": 0, "agency_id": 19740, "ori": "TX2210100", "reported": 0}, {"year": 2013, "offense_name": "Rape", "offense_code": "SUM_RPE", "state_postal_abbr": "TX", "pub_agency_name": "Abilene", "id": 4490227, "actual": 37, "cleared": 30, "unfounded": 3, "juvenile_cleared": 2, "agency_id": 19740, "ori": "TX2210100", "reported": 40}, {"year": 2013, "offense_name": "Arson", "offense_code": "X_ARS", "state_postal_abbr": "TX", "pub_agency_name": "Abilene", "id": 5798922, "actual": 16, "cleared": 2, "unfounded": 0, "juvenile_cleared": 0, "agency_id": 19740, "ori": "TX2210100", "reported": 16}, {"year": 2013, "offense_name": "Robbery", "offense_code": "SUM_ROB", "state_postal_abbr": "TX", "pub_agency_name": "Abilene", "id": 4490228, "actual": 125, "cleared": 59, "unfounded": 5, "juvenile_cleared": 2, "agency_id": 19740, "ori": "TX2210100", "reported": 130}, {"year": 2013, "offense_name": "Burglary", "offense_code": "SUM_BRG", "state_postal_abbr": "TX", "pub_agency_name": "Abilene", "id": 4490230, "actual": 1055, "cleared": 158, "unfounded": 6, "juvenile_cleared": 26, "agency_id": 19740, "ori": "TX2210100", "reported": 1061}, {"year": 2013, "offense_name": "Larceny", "offense_code": "SUM_LRC", "state_postal_abbr": "TX", "pub_agency_name": "Abilene", "id": 4490231, "actual": 3460, "cleared": 746, "unfounded": 35, "juvenile_cleared": 100, "agency_id": 19740, "ori": "TX2210100", "reported": 3495}, {"year": 2013, "offense_name": "Motor Vehicle Theft", "offense_code": "SUM_MVT", "state_postal_abbr": "TX", "pub_agency_name": "Abilene", "id": 4490232, "actual": 254, "cleared": 60, "unfounded": 8, "juvenile_cleared": 8, "agency_id": 19740, "ori": "TX2210100", "reported": 262}, {"year": 2013, "offense_name": "Arson", "offense_code": "X_ARS", "state_postal_abbr": "TX", "pub_agency_name": "Abilene", "id": 5402845, "actual": 16, "cleared": 2, "unfounded": 0, "juvenile_cleared": 0, "agency_id": 19740, "ori": "TX2210100", "reported": 16}, {"year": 2012, "offense_name": "Rape", "offense_code": "SUM_RPE", "state_postal_abbr": "TX", "pub_agency_name": "Abilene", "id": 4369755, "actual": 38, "cleared": 16, "unfounded": 1, "juvenile_cleared": 6, "agency_id": 19740, "ori": "TX2210100", "reported": 39}, {"year": 2012, "offense_name": "Aggravated Assault", "offense_code": "X_AGG", "state_postal_abbr": "TX", "pub_agency_name": "Abilene", "id": 6757753, "actual": 304, "cleared": 165, "unfounded": 7, "juvenile_cleared": 18, "agency_id": 19740, "ori": "TX2210100", "reported": 311}, {"year": 2012, "offense_name": "Arson", "offense_code": "X_ARS", "state_postal_abbr": "TX", "pub_agency_name": "Abilene", "id": 4992419, "actual": 18, "cleared": 2, "unfounded": 0, "juvenile_cleared": 1, "agency_id": 19740, "ori": "TX2210100", "reported": 18}, {"year": 2012, "offense_name": "Arson", "offense_code": "X_ARS", "state_postal_abbr": "TX", "pub_agency_name": "Abilene", "id": 5388496, "actual": 18, "cleared": 2, "unfounded": 0, "juvenile_cleared": 1, "agency_id": 19740, "ori": "TX2210100", "reported": 18}, {"year": 2012, "offense_name": "Arson", "offense_code": "X_ARS", "state_postal_abbr": "TX", "pub_agency_name": "Abilene", "id": 5784573, "actual": 18, "cleared": 2, "unfounded": 0, "juvenile_cleared": 1, "agency_id": 19740, "ori": "TX2210100", "reported": 18}, {"year": 2012, "offense_name": "Manslaughter by Negligence", "offense_code": "SUM_MAN", "state_postal_abbr": "TX", "pub_agency_name": "Abilene", "id": 4369754, "actual": 0, "cleared": 0, "unfounded": 0, "juvenile_cleared": 0, "agency_id": 19740, "ori": "TX2210100", "reported": 0}, {"year": 2012, "offense_name": "Assault", "offense_code": "SUM_AST", "state_postal_abbr": "TX", "pub_agency_name": "Abilene", "id": 4369757, "actual": 2703, "cleared": 960, "unfounded": 37, "juvenile_cleared": 157, "agency_id": 19740, "ori": "TX2210100", "reported": 2740}, {"year": 2012, "offense_name": "Burglary", "offense_code": "SUM_BRG", "state_postal_abbr": "TX", "pub_agency_name": "Abilene", "id": 4369758, "actual": 1037, "cleared": 180, "unfounded": 6, "juvenile_cleared": 31, "agency_id": 19740, "ori": "TX2210100", "reported": 1043}, {"year": 2012, "offense_name": "Larceny", "offense_code": "SUM_LRC", "state_postal_abbr": "TX", "pub_agency_name": "Abilene", "id": 4369759, "actual": 3185, "cleared": 754, "unfounded": 35, "juvenile_cleared": 86, "agency_id": 19740, "ori": "TX2210100", "reported": 3220}, {"year": 2012, "offense_name": "Motor Vehicle Theft", "offense_code": "SUM_MVT", "state_postal_abbr": "TX", "pub_agency_name": "Abilene", "id": 4369760, "actual": 171, "cleared": 46, "unfounded": 8, "juvenile_cleared": 6, "agency_id": 19740, "ori": "TX2210100", "reported": 179}, {"year": 2012, "offense_name": "Arson", "offense_code": "X_ARS", "state_postal_abbr": "TX", "pub_agency_name": "Abilene", "id": 6180650, "actual": 18, "cleared": 2, "unfounded": 0, "juvenile_cleared": 1, "agency_id": 19740, "ori": "TX2210100", "reported": 18}, {"year": 2012, "offense_name": "Robbery", "offense_code": "SUM_ROB", "state_postal_abbr": "TX", "pub_agency_name": "Abilene", "id": 4369756, "actual": 127, "cleared": 46, "unfounded": 2, "juvenile_cleared": 2, "agency_id": 19740, "ori": "TX2210100", "reported": 129}, {"year": 2012, "offense_name": "Murder and Nonnegligent Homicide", "offense_code": "SUM_HOM", "state_postal_abbr": "TX", "pub_agency_name": "Abilene", "id": 4369753, "actual": 3, "cleared": 3, "unfounded": 0, "juvenile_cleared": 0, "agency_id": 19740, "ori": "TX2210100", "reported": 3}, {"year": 2011, "offense_name": "Robbery", "offense_code": "SUM_ROB", "state_postal_abbr": "TX", "pub_agency_name": "Abilene", "id": 4248484, "actual": 120, "cleared": 36, "unfounded": 1, "juvenile_cleared": 2, "agency_id": 19740, "ori": "TX2210100", "reported": 121}, {"year": 2011, "offense_name": "Murder and Nonnegligent Homicide", "offense_code": "SUM_HOM", "state_postal_abbr": "TX", "pub_agency_name": "Abilene", "id": 4248481, "actual": 5, "cleared": 4, "unfounded": 1, "juvenile_cleared": 0, "agency_id": 19740, "ori": "TX2210100", "reported": 6}, {"year": 2011, "offense_name": "Arson", "offense_code": "X_ARS", "state_postal_abbr": "TX", "pub_agency_name": "Abilene", "id": 5769969, "actual": 31, "cleared": 15, "unfounded": 0, "juvenile_cleared": 4, "agency_id": 19740, "ori": "TX2210100", "reported": 31}, {"year": 2011, "offense_name": "Rape", "offense_code": "SUM_RPE", "state_postal_abbr": "TX", "pub_agency_name": "Abilene", "id": 4248483, "actual": 33, "cleared": 14, "unfounded": 1, "juvenile_cleared": 1, "agency_id": 19740, "ori": "TX2210100", "reported": 34}, {"year": 2011, "offense_name": "Aggravated Assault", "offense_code": "X_AGG", "state_postal_abbr": "TX", "pub_agency_name": "Abilene", "id": 6742594, "actual": 270, "cleared": 148, "unfounded": 7, "juvenile_cleared": 12, "agency_id": 19740, "ori": "TX2210100", "reported": 277}, {"year": 2011, "offense_name": "Assault", "offense_code": "SUM_AST", "state_postal_abbr": "TX", "pub_agency_name": "Abilene", "id": 4248485, "actual": 2641, "cleared": 983, "unfounded": 50, "juvenile_cleared": 153, "agency_id": 19740, "ori": "TX2210100", "reported": 2691}, {"year": 2011, "offense_name": "Arson", "offense_code": "X_ARS", "state_postal_abbr": "TX", "pub_agency_name": "Abilene", "id": 4977815, "actual": 31, "cleared": 15, "unfounded": 0, "juvenile_cleared": 4, "agency_id": 19740, "ori": "TX2210100", "reported": 31}, {"year": 2011, "offense_name": "Motor Vehicle Theft", "offense_code": "SUM_MVT", "state_postal_abbr": "TX", "pub_agency_name": "Abilene", "id": 4248488, "actual": 172, "cleared": 35, "unfounded": 11, "juvenile_cleared": 7, "agency_id": 19740, "ori": "TX2210100", "reported": 183}, {"year": 2011, "offense_name": "Larceny", "offense_code": "SUM_LRC", "state_postal_abbr": "TX", "pub_agency_name": "Abilene", "id": 4248487, "actual": 3093, "cleared": 863, "unfounded": 57, "juvenile_cleared": 115, "agency_id": 19740, "ori": "TX2210100", "reported": 3150}, {"year": 2011, "offense_name": "Arson", "offense_code": "X_ARS", "state_postal_abbr": "TX", "pub_agency_name": "Abilene", "id": 6166046, "actual": 31, "cleared": 15, "unfounded": 0, "juvenile_cleared": 4, "agency_id": 19740, "ori": "TX2210100", "reported": 31}, {"year": 2011, "offense_name": "Manslaughter by Negligence", "offense_code": "SUM_MAN", "state_postal_abbr": "TX", "pub_agency_name": "Abilene", "id": 4248482, "actual": 1, "cleared": 1, "unfounded": 0, "juvenile_cleared": 1, "agency_id": 19740, "ori": "TX2210100", "reported": 1}, {"year": 2011, "offense_name": "Arson", "offense_code": "X_ARS", "state_postal_abbr": "TX", "pub_agency_name": "Abilene", "id": 5373892, "actual": 31, "cleared": 15, "unfounded": 0, "juvenile_cleared": 4, "agency_id": 19740, "ori": "TX2210100", "reported": 31}, {"year": 2011, "offense_name": "Burglary", "offense_code": "SUM_BRG", "state_postal_abbr": "TX", "pub_agency_name": "Abilene", "id": 4248486, "actual": 1119, "cleared": 194, "unfounded": 12, "juvenile_cleared": 30, "agency_id": 19740, "ori": "TX2210100", "reported": 1131}, {"year": 2010, "offense_name": "Larceny", "offense_code": "SUM_LRC", "state_postal_abbr": "TX", "pub_agency_name": "Abilene", "id": 4126863, "actual": 3375, "cleared": 868, "unfounded": 29, "juvenile_cleared": 126, "agency_id": 19740, "ori": "TX2210100", "reported": 3404}, {"year": 2010, "offense_name": "Aggravated Assault", "offense_code": "X_AGG", "state_postal_abbr": "TX", "pub_agency_name": "Abilene", "id": 6727391, "actual": 394, "cleared": 230, "unfounded": 6, "juvenile_cleared": 18, "agency_id": 19740, "ori": "TX2210100", "reported": 400}, {"year": 2010, "offense_name": "Arson", "offense_code": "X_ARS", "state_postal_abbr": "TX", "pub_agency_name": "Abilene", "id": 6151013, "actual": 26, "cleared": 4, "unfounded": 0, "juvenile_cleared": 0, "agency_id": 19740, "ori": "TX2210100", "reported": 26}, {"year": 2010, "offense_name": "Arson", "offense_code": "X_ARS", "state_postal_abbr": "TX", "pub_agency_name": "Abilene", "id": 5754936, "actual": 26, "cleared": 4, "unfounded": 0, "juvenile_cleared": 0, "agency_id": 19740, "ori": "TX2210100", "reported": 26}, {"year": 2010, "offense_name": "Arson", "offense_code": "X_ARS", "state_postal_abbr": "TX", "pub_agency_name": "Abilene", "id": 5358859, "actual": 26, "cleared": 4, "unfounded": 0, "juvenile_cleared": 0, "agency_id": 19740, "ori": "TX2210100", "reported": 26}, {"year": 2010, "offense_name": "Arson", "offense_code": "X_ARS", "state_postal_abbr": "TX", "pub_agency_name": "Abilene", "id": 4962782, "actual": 26, "cleared": 4, "unfounded": 0, "juvenile_cleared": 0, "agency_id": 19740, "ori": "TX2210100", "reported": 26}, {"year": 2010, "offense_name": "Motor Vehicle Theft", "offense_code": "SUM_MVT", "state_postal_abbr": "TX", "pub_agency_name": "Abilene", "id": 4126864, "actual": 182, "cleared": 53, "unfounded": 21, "juvenile_cleared": 9, "agency_id": 19740, "ori": "TX2210100", "reported": 203}, {"year": 2010, "offense_name": "Burglary", "offense_code": "SUM_BRG", "state_postal_abbr": "TX", "pub_agency_name": "Abilene", "id": 4126862, "actual": 1340, "cleared": 232, "unfounded": 8, "juvenile_cleared": 41, "agency_id": 19740, "ori": "TX2210100", "reported": 1348}, {"year": 2010, "offense_name": "Assault", "offense_code": "SUM_AST", "state_postal_abbr": "TX", "pub_agency_name": "Abilene", "id": 4126861, "actual": 2943, "cleared": 1145, "unfounded": 67, "juvenile_cleared": 176, "agency_id": 19740, "ori": "TX2210100", "reported": 3010}, {"year": 2010, "offense_name": "Robbery", "offense_code": "SUM_ROB", "state_postal_abbr": "TX", "pub_agency_name": "Abilene", "id": 4126860, "actual": 112, "cleared": 41, "unfounded": 1, "juvenile_cleared": 5, "agency_id": 19740, "ori": "TX2210100", "reported": 113}, {"year": 2010, "offense_name": "Rape", "offense_code": "SUM_RPE", "state_postal_abbr": "TX", "pub_agency_name": "Abilene", "id": 4126859, "actual": 68, "cleared": 18, "unfounded": 1, "juvenile_cleared": 7, "agency_id": 19740, "ori": "TX2210100", "reported": 69}, {"year": 2010, "offense_name": "Manslaughter by Negligence", "offense_code": "SUM_MAN", "state_postal_abbr": "TX", "pub_agency_name": "Abilene", "id": 4126858, "actual": 0, "cleared": 0, "unfounded": 0, "juvenile_cleared": 0, "agency_id": 19740, "ori": "TX2210100", "reported": 0}, {"year": 2010, "offense_name": "Murder and Nonnegligent Homicide", "offense_code": "SUM_HOM", "state_postal_abbr": "TX", "pub_agency_name": "Abilene", "id": 4126857, "actual": 4, "cleared": 4, "unfounded": 0, "juvenile_cleared": 0, "agency_id": 19740, "ori": "TX2210100", "reported": 4}, {"year": 2009, "offense_name": "Arson", "offense_code": "X_ARS", "state_postal_abbr": "TX", "pub_agency_name": "Abilene", "id": 5740185, "actual": 30, "cleared": 3, "unfounded": 0, "juvenile_cleared": 1, "agency_id": 19740, "ori": "TX2210100", "reported": 30}, {"year": 2009, "offense_name": "Aggravated Assault", "offense_code": "X_AGG", "state_postal_abbr": "TX", "pub_agency_name": "Abilene", "id": 6712252, "actual": 400, "cleared": 170, "unfounded": 5, "juvenile_cleared": 29, "agency_id": 19740, "ori": "TX2210100", "reported": 405}, {"year": 2009, "offense_name": "Arson", "offense_code": "X_ARS", "state_postal_abbr": "TX", "pub_agency_name": "Abilene", "id": 6136262, "actual": 30, "cleared": 3, "unfounded": 0, "juvenile_cleared": 1, "agency_id": 19740, "ori": "TX2210100", "reported": 30}, {"year": 2009, "offense_name": "Burglary", "offense_code": "SUM_BRG", "state_postal_abbr": "TX", "pub_agency_name": "Abilene", "id": 4005750, "actual": 1301, "cleared": 206, "unfounded": 2, "juvenile_cleared": 34, "agency_id": 19740, "ori": "TX2210100", "reported": 1303}, {"year": 2009, "offense_name": "Larceny", "offense_code": "SUM_LRC", "state_postal_abbr": "TX", "pub_agency_name": "Abilene", "id": 4005751, "actual": 3267, "cleared": 758, "unfounded": 39, "juvenile_cleared": 99, "agency_id": 19740, "ori": "TX2210100", "reported": 3306}, {"year": 2009, "offense_name": "Arson", "offense_code": "X_ARS", "state_postal_abbr": "TX", "pub_agency_name": "Abilene", "id": 4948031, "actual": 30, "cleared": 3, "unfounded": 0, "juvenile_cleared": 1, "agency_id": 19740, "ori": "TX2210100", "reported": 30}, {"year": 2009, "offense_name": "Arson", "offense_code": "X_ARS", "state_postal_abbr": "TX", "pub_agency_name": "Abilene", "id": 5344108, "actual": 30, "cleared": 3, "unfounded": 0, "juvenile_cleared": 1, "agency_id": 19740, "ori": "TX2210100", "reported": 30}, {"year": 2009, "offense_name": "Motor Vehicle Theft", "offense_code": "SUM_MVT", "state_postal_abbr": "TX", "pub_agency_name": "Abilene", "id": 4005752, "actual": 262, "cleared": 71, "unfounded": 12, "juvenile_cleared": 16, "agency_id": 19740, "ori": "TX2210100", "reported": 274}, {"year": 2009, "offense_name": "Murder and Nonnegligent Homicide", "offense_code": "SUM_HOM", "state_postal_abbr": "TX", "pub_agency_name": "Abilene", "id": 4005745, "actual": 7, "cleared": 9, "unfounded": 0, "juvenile_cleared": 2, "agency_id": 19740, "ori": "TX2210100", "reported": 7}, {"year": 2009, "offense_name": "Manslaughter by Negligence", "offense_code": "SUM_MAN", "state_postal_abbr": "TX", "pub_agency_name": "Abilene", "id": 4005746, "actual": 0, "cleared": 0, "unfounded": 0, "juvenile_cleared": 0, "agency_id": 19740, "ori": "TX2210100", "reported": 0}, {"year": 2009, "offense_name": "Rape", "offense_code": "SUM_RPE", "state_postal_abbr": "TX", "pub_agency_name": "Abilene", "id": 4005747, "actual": 114, "cleared": 51, "unfounded": 9, "juvenile_cleared": 7, "agency_id": 19740, "ori": "TX2210100", "reported": 123}, {"year": 2009, "offense_name": "Robbery", "offense_code": "SUM_ROB", "state_postal_abbr": "TX", "pub_agency_name": "Abilene", "id": 4005748, "actual": 137, "cleared": 48, "unfounded": 2, "juvenile_cleared": 4, "agency_id": 19740, "ori": "TX2210100", "reported": 139}, {"year": 2009, "offense_name": "Assault", "offense_code": "SUM_AST", "state_postal_abbr": "TX", "pub_agency_name": "Abilene", "id": 4005749, "actual": 3138, "cleared": 1048, "unfounded": 35, "juvenile_cleared": 222, "agency_id": 19740, "ori": "TX2210100", "reported": 3173}, {"year": 2008, "offense_name": "Larceny", "offense_code": "SUM_LRC", "state_postal_abbr": "TX", "pub_agency_name": "Abilene", "id": 3888463, "actual": 3061, "cleared": 689, "unfounded": 39, "juvenile_cleared": 126, "agency_id": 19740, "ori": "TX2210100", "reported": 3100}, {"year": 2008, "offense_name": "Arson", "offense_code": "X_ARS", "state_postal_abbr": "TX", "pub_agency_name": "Abilene", "id": 5329785, "actual": 41, "cleared": 3, "unfounded": 0, "juvenile_cleared": 1, "agency_id": 19740, "ori": "TX2210100", "reported": 41}], "pagination": {"per_page": 100, "count": 1751, "page": 1, "pages": 18}}
